@startuml

hide empty members
hide circle
hide stereotype
skinparam shadowing false
skinparam monochrome true

!$extbg = "FFFFFF"
!$extfg = "CCCCCC"
!$impbg = "BBBBBB"

interface Simplifier #$extbg;line:$extfg;text:$extfg
class SimplifierFeatures #$extbg;line:$extfg;text:$extfg
class DictionaryHandle #$extbg;line:$extfg;text:$extfg

interface MountabilityData<U,V> #$extbg;line:$extfg;text:$extfg

interface MountabilityHandler<U, V> {
   processBeginUsePoints()
   processEndUsePoints()
   processBeginUsePoint(use point)
   processEndUsePoint(use point)
   processVariantMountability(use point, variant, mountability)
}

interface MountabilityComputer<U, V> {
    compute(...)
}

class MountabilityComputerFeatures {
   hints
}

enum Hint {
  SIMPLIFY
}

class MountabilityComputerImpl<U, V> #$impbg implements MountabilityComputer

MountabilityComputer .up.> MountabilityData
MountabilityComputer ..> MountabilityHandler
MountabilityComputer ..> MountabilityComputerFeatures
MountabilityComputerFeatures +-- Hint
MountabilityComputerFeatures o--> "*" Hint
MountabilityComputerImpl o--> Simplifier
MountabilityComputerImpl o--> SimplifierFeatures
MountabilityComputerImpl ..> DictionaryHandle

@enduml