@startuml

hide empty members
hide circle
'hide stereotype
skinparam shadowing false
skinparam monochrome true

!$extbg = "FFFFFF"
!$extfg = "CCCCCC"
!$impbg = "BBBBBB"

class Expression #$extbg;line:$extfg;text:$extfg

interface MountabilityData<U,V> {
   getUsePoints()
   getVariants(use point)
   getVariantInterchangeability(use point, variant)
   getVariantApplicability(use point, variant)
}

abstract class UsePoint <<Concept>> {
}

abstract class Variant <<Concept>> {
   applicability
   interchangeability
}

enum Interchangeability {
   NOT_INTERCHANGEABLE
   ONE_WAY
   TWO_WAYS
}

MountabilityData  o--> "*" UsePoint
UsePoint "{ordered}" o--> "+" Variant
Variant ..> Interchangeability
Variant ..> Expression

class Data #$impbg
Data .left.|> MountabilityData
class "UsePoint" as UsePointImpl #$impbg
UsePointImpl .left.|> UsePoint 
class "Variant" as VariantImpl #$impbg
VariantImpl .left.|> Variant

Data  o--> "*" UsePointImpl
UsePointImpl "{ordered}" o--> "+" VariantImpl

@enduml