@startuml

hide empty members
hide circle
hide stereotype
skinparam shadowing false
skinparam monochrome true

!$extbg = "FFFFFF"
!$extfg = "CCCCCC"
!$impfg = "BBBBBB"

class NamingConvention #$extbg;line:$extfg;text:$extfg
interface Dictionary #$extbg;line:$extfg;text:$extfg

interface XmlHandler {
   beginElement(name)
   addAttribute(name, value)
   addElementContent(content)
   endElement()
}

interface ExpressionToS1000DConverter {
   convert(expression, handler)
}

class ExpressionToS1000DConverterImpl #$impfg implements ExpressionToS1000DConverter {
   dictionary
   convention
}

class DataXmlHandler #$impfg implements XmlHandler {
   root
}
class XmlWriterXmlHandler #$impfg implements XmlHandler {
   writer
}
class StringXmlHandler #$impfg implements XmlHandler {
   text
}

ExpressionToS1000DConverter ..> XmlHandler
ExpressionToS1000DConverterImpl o--> NamingConvention
ExpressionToS1000DConverterImpl o--> Dictionary

@enduml