<?xml version="1.0" encoding="UTF-8" standalone="no"?><svg xmlns="http://www.w3.org/2000/svg" xmlns:xlink="http://www.w3.org/1999/xlink" contentScriptType="application/ecmascript" contentStyleType="text/css" height="343px" preserveAspectRatio="none" style="width:628px;height:343px;background:#FFFFFF;" version="1.1" viewBox="0 0 628 343" width="628px" zoomAndPan="magnify"><defs/><g><!--MD5=[a8a9b0ff558cb182935839276bcbdf76]
class NamedDItem--><rect codeLine="12" fill="#FFFFFF" height="23.9688" id="NamedDItem" style="stroke:#CCCCCC;stroke-width:1.5;" width="86" x="200" y="213"/><text fill="#CCCCCC" font-family="sans-serif" font-size="12" lengthAdjust="spacing" textLength="80" x="203" y="229.1387">NamedDItem</text><!--MD5=[d7c34f42d022f6ac1d973c643768195f]
class Alias--><rect codeLine="13" fill="#FFFFFF" height="23.9688" id="Alias" style="stroke:#CCCCCC;stroke-width:1.5;" width="34" x="414" y="314"/><text fill="#CCCCCC" font-family="sans-serif" font-size="12" font-style="italic" lengthAdjust="spacing" textLength="28" x="417" y="330.1387">Alias</text><!--MD5=[6b626634f3bb0842bebd5e499c80b711]
class Property--><rect codeLine="14" fill="#FFFFFF" height="23.9688" id="Property" style="stroke:#CCCCCC;stroke-width:1.5;" width="59" x="82.5" y="314"/><text fill="#CCCCCC" font-family="sans-serif" font-size="12" font-style="italic" lengthAdjust="spacing" textLength="53" x="85.5" y="330.1387">Property</text><!--MD5=[439d26ab50fe44e130748566a7fd38e9]
class BindingRole--><rect codeLine="15" fill="#FFFFFF" height="23.9688" id="BindingRole" style="stroke:#CCCCCC;stroke-width:1.5;" width="79" x="279.5" y="7"/><text fill="#CCCCCC" font-family="sans-serif" font-size="12" lengthAdjust="spacing" textLength="73" x="282.5" y="23.1387">BindingRole</text><!--MD5=[da5c7bf60dbc174189506605c6e37f5d]
class TypesBinding--><rect codeLine="16" fill="#FFFFFF" height="23.9688" id="TypesBinding" style="stroke:#CCCCCC;stroke-width:1.5;" width="88" x="42" y="101.5"/><text fill="#CCCCCC" font-family="sans-serif" font-size="12" font-style="italic" lengthAdjust="spacing" textLength="82" x="45" y="117.6387">TypesBinding</text><!--MD5=[7a4967102ee8bd5fdc04365160dd3cf6]
class DItemsBinding--><rect codeLine="18" fill="#F8F8F8" height="44.7734" id="DItemsBinding" style="stroke:#383838;stroke-width:1.5;" width="95" x="271.5" y="91"/><text fill="#000000" font-family="sans-serif" font-size="12" font-style="italic" lengthAdjust="spacing" textLength="89" x="274.5" y="107.1387">DItemsBinding</text><line style="stroke:#383838;stroke-width:1.5;" x1="272.5" x2="365.5" y1="114.9688" y2="114.9688"/><text fill="#000000" font-family="sans-serif" font-size="11" lengthAdjust="spacing" textLength="81" x="277.5" y="129.1792">getDItem(role)</text><!--MD5=[318c0b6f4d496bd12eafa3bb692f23c1]
class AliasAliasBinding--><rect codeLine="22" fill="#F8F8F8" height="44.7734" id="AliasAliasBinding" style="stroke:#383838;stroke-width:1.5;" width="108" x="504" y="202.5"/><text fill="#000000" font-family="sans-serif" font-size="12" font-style="italic" lengthAdjust="spacing" textLength="102" x="507" y="218.6387">AliasAliasBinding</text><line style="stroke:#383838;stroke-width:1.5;" x1="505" x2="611" y1="226.4688" y2="226.4688"/><text fill="#000000" font-family="sans-serif" font-size="11" lengthAdjust="spacing" textLength="75" x="510" y="240.6792">getAlias(role)</text><!--MD5=[5d72e474964331ebcdca96dbdae4210c]
class PropertyPropertyBinding--><rect codeLine="26" fill="#F8F8F8" height="57.5781" id="PropertyPropertyBinding" style="stroke:#383838;stroke-width:1.5;" width="158" x="7" y="196"/><text fill="#000000" font-family="sans-serif" font-size="12" font-style="italic" lengthAdjust="spacing" textLength="152" x="10" y="212.1387">PropertyPropertyBinding</text><line style="stroke:#383838;stroke-width:1.5;" x1="8" x2="164" y1="219.9688" y2="219.9688"/><text fill="#000000" font-family="sans-serif" font-size="11" lengthAdjust="spacing" textLength="96" x="13" y="234.1792">getProperty(role)</text><text fill="#000000" font-family="sans-serif" font-size="11" lengthAdjust="spacing" textLength="102" x="13" y="246.9839">getTypesBinding()</text><!--MD5=[19782b49c67c1dd43921729c4c117480]
class AbstractDItemsBinding--><rect codeLine="31" fill="#BBBBBB" height="23.9688" id="AbstractDItemsBinding" style="stroke:#383838;stroke-width:1.5;" width="147" x="321.5" y="213"/><text fill="#000000" font-family="sans-serif" font-size="12" font-style="italic" lengthAdjust="spacing" textLength="141" x="324.5" y="229.1387">AbstractDItemsBinding</text><!--MD5=[e3d8f0e088c0000ec5b8e2114860b0cb]
class AliasAliasBindingImpl--><rect codeLine="32" fill="#BBBBBB" height="23.9688" id="AliasAliasBindingImpl" style="stroke:#383838;stroke-width:1.5;" width="135" x="486.5" y="314"/><text fill="#000000" font-family="sans-serif" font-size="12" lengthAdjust="spacing" textLength="129" x="489.5" y="330.1387">AliasAliasBindingImpl</text><!--MD5=[7e469efea5ab7ccb3f295878aeeffd5e]
class PropertyPropertyBindingImpl--><rect codeLine="33" fill="#BBBBBB" height="23.9688" id="PropertyPropertyBindingImpl" style="stroke:#383838;stroke-width:1.5;" width="183" x="189.5" y="314"/><text fill="#000000" font-family="sans-serif" font-size="12" lengthAdjust="spacing" textLength="177" x="192.5" y="330.1387">PropertyPropertyBindingImpl</text><!--MD5=[9d4b00fd173e6a0f9083fb338c66bb7c]
reverse link NamedDItem to Alias--><path d="M281.9,246.49 C322.41,267.82 384.01,300.26 413.75,315.91 " fill="none" id="NamedDItem-backto-Alias" style="stroke:#383838;stroke-width:1.0;"/><polygon fill="none" points="278.64,252.68,264.2,237.16,285.16,240.29,278.64,252.68" style="stroke:#383838;stroke-width:1.0;"/><!--MD5=[edb3365b6f05982515b8f88da5d1b225]
reverse link NamedDItem to Property--><path d="M212.09,249.36 C185.25,269.65 147.54,298.14 126.92,313.72 " fill="none" id="NamedDItem-backto-Property" style="stroke:#383838;stroke-width:1.0;"/><polygon fill="none" points="208.05,243.64,228.23,237.16,216.49,254.81,208.05,243.64" style="stroke:#383838;stroke-width:1.0;"/><!--MD5=[72c4affee28f83c9cba555ef7bafb517]
reverse link DItemsBinding to AliasAliasBinding--><path d="M384.35,144.44 C424.36,162.77 474.62,185.8 510.77,202.36 " fill="none" id="DItemsBinding-backto-AliasAliasBinding" style="stroke:#383838;stroke-width:1.0;"/><polygon fill="none" points="381.2,150.7,365.93,136,387.03,137.97,381.2,150.7" style="stroke:#383838;stroke-width:1.0;"/><!--MD5=[8c39d979af29e790fa1646e38ea1a7f0]
reverse link DItemsBinding to PropertyPropertyBinding--><path d="M254.7,144.72 C220.66,160.72 179.13,180.23 145.79,195.9 " fill="none" id="DItemsBinding-backto-PropertyPropertyBinding" style="stroke:#383838;stroke-width:1.0;"/><polygon fill="none" points="252.17,138.17,273.24,136,258.12,150.84,252.17,138.17" style="stroke:#383838;stroke-width:1.0;"/><!--MD5=[b29b896b1151b2bfb8bef90252babe31]
reverse link DItemsBinding to AbstractDItemsBinding--><path d="M345.55,152.75 C360.25,173.93 377.47,198.75 387.22,212.79 " fill="none" id="DItemsBinding-backto-AbstractDItemsBinding" style="stroke:#383838;stroke-width:1.0;stroke-dasharray:7.0,7.0;"/><polygon fill="none" points="339.67,156.56,334.02,136.13,351.17,148.57,339.67,156.56" style="stroke:#383838;stroke-width:1.0;"/><!--MD5=[4c4ff655f42443e0238679d97b60b98b]
reverse link AbstractDItemsBinding to AliasAliasBindingImpl--><path d="M430.21,247.92 C462.9,268.28 510.26,297.77 535.89,313.72 " fill="none" id="AbstractDItemsBinding-backto-AliasAliasBindingImpl" style="stroke:#383838;stroke-width:1.0;"/><polygon fill="none" points="426.21,253.68,412.93,237.16,433.61,241.79,426.21,253.68" style="stroke:#383838;stroke-width:1.0;"/><!--MD5=[8fef68efabc82a8a728de01ef8b68bf9]
reverse link AliasAliasBinding to AliasAliasBindingImpl--><path d="M556.3,267.96 C555.63,284.7 554.9,302.63 554.45,313.82 " fill="none" id="AliasAliasBinding-backto-AliasAliasBindingImpl" style="stroke:#383838;stroke-width:1.0;stroke-dasharray:7.0,7.0;"/><polygon fill="none" points="549.31,267.67,557.11,247.97,563.3,268.24,549.31,267.67" style="stroke:#383838;stroke-width:1.0;"/><!--MD5=[e91f3175f4d3aa1186bcfa3de0bb5608]
reverse link AbstractDItemsBinding to PropertyPropertyBindingImpl--><path d="M366.5,250.75 C343.24,270.95 311.45,298.56 293.92,313.78 " fill="none" id="AbstractDItemsBinding-backto-PropertyPropertyBindingImpl" style="stroke:#383838;stroke-width:1.0;"/><polygon fill="none" points="362.23,245.19,381.92,237.36,371.41,255.76,362.23,245.19" style="stroke:#383838;stroke-width:1.0;"/><!--MD5=[c4553be01d3fcf1f86704f5ce134f6f1]
reverse link PropertyPropertyBinding to PropertyPropertyBindingImpl--><path d="M159.44,263.29 C195.03,281.35 235.17,301.73 259.26,313.96 " fill="none" id="PropertyPropertyBinding-backto-PropertyPropertyBindingImpl" style="stroke:#383838;stroke-width:1.0;stroke-dasharray:7.0,7.0;"/><polygon fill="none" points="156.02,269.4,141.36,254.1,162.36,256.92,156.02,269.4" style="stroke:#383838;stroke-width:1.0;"/><!--MD5=[b16d0a456b37ffaaaf01f6ebddebe197]
link DItemsBinding to NamedDItem--><path codeLine="35" d="M297.1392,145.9892 C297.1392,145.9892 269.26,186.17 258.28,201.98 " fill="none" id="DItemsBinding-NamedDItem" style="stroke:#383838;stroke-width:1.0;"/><polygon fill="#383838" points="250.78,212.79,259.197,207.6759,253.6303,208.682,252.6242,203.1153,250.78,212.79" style="stroke:#383838;stroke-width:1.0;"/><line style="stroke:#383838;stroke-width:1.0;" x1="253.6303" x2="258.19" y1="208.682" y2="202.115"/><polygon fill="#FFFFFF" points="303.98,136.13,297.2732,138.7793,297.1392,145.9892,303.846,143.3399,303.98,136.13" style="stroke:#383838;stroke-width:1.0;"/><text fill="#000000" font-family="sans-serif" font-size="13" lengthAdjust="spacing" textLength="8" x="244.3393" y="201.7604">2</text><!--MD5=[373611d688d9857c1e935143ad45e9c8]
reverse link BindingRole to DItemsBinding--><path codeLine="36" d="M319,36.57 C319,51.73 319,74.25 319,90.83 " fill="none" id="BindingRole-backto-DItemsBinding" style="stroke:#383838;stroke-width:1.0;stroke-dasharray:7.0,7.0;"/><polygon fill="#383838" points="319,31.34,315,40.34,319,36.34,323,40.34,319,31.34" style="stroke:#383838;stroke-width:1.0;"/><!--MD5=[e27a0e637e62e32e1c155c479ab03db9]
link AliasAliasBinding to Alias--><path codeLine="37" d="M520.6613,255.1019 C520.6613,255.1019 473.97,291.5 455.76,305.7 " fill="none" id="AliasAliasBinding-Alias" style="stroke:#383838;stroke-width:1.0;"/><polygon fill="#383838" points="445.41,313.76,454.9667,311.3791,449.3526,310.685,450.0467,305.0709,445.41,313.76" style="stroke:#383838;stroke-width:1.0;"/><line style="stroke:#383838;stroke-width:1.0;" x1="449.3526" x2="455.67" y1="310.685" y2="305.77"/><polygon fill="#FFFFFF" points="530.13,247.73,522.9384,248.2597,520.6613,255.1019,527.8529,254.5722,530.13,247.73" style="stroke:#383838;stroke-width:1.0;"/><text fill="#000000" font-family="sans-serif" font-size="13" lengthAdjust="spacing" textLength="8" x="441.7041" y="302.718">2</text><!--MD5=[1c48fb5ba18722858ca02e912e8a90ee]
link PropertyPropertyBinding to Property--><path codeLine="38" d="M96.4268,265.7068 C96.4268,265.7068 103.01,290.76 105.71,301.05 " fill="none" id="PropertyPropertyBinding-Property" style="stroke:#383838;stroke-width:1.0;"/><polygon fill="#383838" points="109.1,313.96,110.6838,304.2393,107.8305,309.1238,102.946,306.2705,109.1,313.96" style="stroke:#383838;stroke-width:1.0;"/><line style="stroke:#383838;stroke-width:1.0;" x1="107.8305" x2="105.8" y1="309.1238" y2="301.385"/><polygon fill="#FFFFFF" points="93.38,254.1,91.0345,260.919,96.4268,265.7068,98.7723,258.8878,93.38,254.1" style="stroke:#383838;stroke-width:1.0;"/><text fill="#000000" font-family="sans-serif" font-size="13" lengthAdjust="spacing" textLength="8" x="98.2538" y="303.0005">2</text><!--MD5=[b11c1cc94fb6cd18f79a25b88713e9f9]
reverse link TypesBinding to PropertyPropertyBinding--><path codeLine="39" d="M86,131.23 C86,148.39 86,175.41 86,195.87 " fill="none" id="TypesBinding-backto-PropertyPropertyBinding" style="stroke:#383838;stroke-width:1.0;stroke-dasharray:7.0,7.0;"/><polygon fill="#383838" points="86,125.81,82,134.81,86,130.81,90,134.81,86,125.81" style="stroke:#383838;stroke-width:1.0;"/><!--MD5=[83d2586df3bd6dca4c2626a3036d294a]
@startuml

hide empty members
hide circle
hide stereotype
skinparam shadowing false
skinparam monochrome true

!$extbg = "FFFFFF"
!$extfg = "CCCCCC"
!$impfg = "BBBBBB"

class NamedDItem #$extbg;line:$extfg;text:$extfg
interface Alias #$extbg;line:$extfg;text:$extfg extends NamedDItem
interface Property #$extbg;line:$extfg;text:$extfg extends NamedDItem
enum BindingRole #$extbg;line:$extfg;text:$extfg
interface TypesBinding #$extbg;line:$extfg;text:$extfg

interface DItemsBinding {
   getDItem(role)
}

interface AliasAliasBinding extends DItemsBinding {
   getAlias(role)
}

interface PropertyPropertyBinding extends DItemsBinding {
    getProperty(role)
    getTypesBinding()
}

abstract class AbstractDItemsBinding #$impfg implements DItemsBinding
class AliasAliasBindingImpl #$impfg extends AbstractDItemsBinding implements AliasAliasBinding
class PropertyPropertyBindingImpl #$impfg extends AbstractDItemsBinding implements PropertyPropertyBinding

DItemsBinding o- -> "2" NamedDItem
DItemsBinding .up.> BindingRole
AliasAliasBinding o- -> "2" Alias
PropertyPropertyBinding o- -> "2" Property
PropertyPropertyBinding .up.> TypesBinding

@enduml

@startuml

hide empty members
hide circle
hide stereotype
skinparam shadowing false
skinparam monochrome true


class NamedDItem #FFFFFF;line:CCCCCC;text:CCCCCC
interface Alias #FFFFFF;line:CCCCCC;text:CCCCCC extends NamedDItem
interface Property #FFFFFF;line:CCCCCC;text:CCCCCC extends NamedDItem
enum BindingRole #FFFFFF;line:CCCCCC;text:CCCCCC
interface TypesBinding #FFFFFF;line:CCCCCC;text:CCCCCC

interface DItemsBinding {
   getDItem(role)
}

interface AliasAliasBinding extends DItemsBinding {
   getAlias(role)
}

interface PropertyPropertyBinding extends DItemsBinding {
    getProperty(role)
    getTypesBinding()
}

abstract class AbstractDItemsBinding #BBBBBB implements DItemsBinding
class AliasAliasBindingImpl #BBBBBB extends AbstractDItemsBinding implements AliasAliasBinding
class PropertyPropertyBindingImpl #BBBBBB extends AbstractDItemsBinding implements PropertyPropertyBinding

DItemsBinding o- -> "2" NamedDItem
DItemsBinding .up.> BindingRole
AliasAliasBinding o- -> "2" Alias
PropertyPropertyBinding o- -> "2" Property
PropertyPropertyBinding .up.> TypesBinding

@enduml

PlantUML version 1.2021.12(Tue Oct 05 18:01:58 CEST 2021)
(GPL source distribution)
Java Runtime: OpenJDK Runtime Environment
JVM: OpenJDK 64-Bit Server VM
Default Encoding: UTF-8
Language: fr
Country: FR
--></g></svg>