<?xml version="1.0" encoding="UTF-8" standalone="no"?><svg xmlns="http://www.w3.org/2000/svg" xmlns:xlink="http://www.w3.org/1999/xlink" contentScriptType="application/ecmascript" contentStyleType="text/css" height="488px" preserveAspectRatio="none" style="width:379px;height:488px;background:#FFFFFF;" version="1.1" viewBox="0 0 379 488" width="379px" zoomAndPan="magnify"><defs/><g><!--MD5=[6b626634f3bb0842bebd5e499c80b711]
class Property--><rect codeLine="11" fill="#FFFFFF" height="23.9688" id="Property" style="stroke:#CCCCCC;stroke-width:1.5;" width="59" x="114" y="17.5"/><text fill="#CCCCCC" font-family="sans-serif" font-size="12" font-style="italic" lengthAdjust="spacing" textLength="53" x="117" y="33.6387">Property</text><!--MD5=[4296a1ab0576a383a1a509d52c22ebf0]
class Type--><rect codeLine="12" fill="#FFFFFF" height="23.9688" id="Type" style="stroke:#CCCCCC;stroke-width:1.5;" width="36" x="266.5" y="148"/><text fill="#CCCCCC" font-family="sans-serif" font-size="12" font-style="italic" lengthAdjust="spacing" textLength="30" x="269.5" y="164.1387">Type</text><!--MD5=[fa6f694014dbd7920d0cb882cd15e33c]
class S1000DIdentified--><rect codeLine="14" fill="#F8F8F8" height="44.7734" id="S1000DIdentified" style="stroke:#383838;stroke-width:1.5;" width="114" x="253.5" y="7"/><text fill="#000000" font-family="sans-serif" font-size="12" font-style="italic" lengthAdjust="spacing" textLength="108" x="256.5" y="23.1387">S1000DIdentified</text><line style="stroke:#383838;stroke-width:1.5;" x1="254.5" x2="366.5" y1="30.9688" y2="30.9688"/><text fill="#000000" font-family="sans-serif" font-size="11" lengthAdjust="spacing" textLength="36" x="259.5" y="45.1792">getId()</text><!--MD5=[c7f1b4a2105f7ab5828708ed2e72fe2c]
class S1000DProductIdentifier--><rect codeLine="17" fill="#F8F8F8" height="83.1875" id="S1000DProductIdentifier" style="stroke:#383838;stroke-width:1.5;" width="159" x="7" y="398"/><text fill="#000000" font-family="sans-serif" font-size="12" lengthAdjust="spacing" textLength="153" x="10" y="414.1387">S1000DProductIdentifier</text><line style="stroke:#383838;stroke-width:1.5;" x1="8" x2="165" y1="421.9688" y2="421.9688"/><text fill="#000000" font-family="sans-serif" font-size="11" lengthAdjust="spacing" textLength="47" x="13" y="436.1792">PRIMARY</text><text fill="#000000" font-family="sans-serif" font-size="11" lengthAdjust="spacing" textLength="69" x="13" y="448.9839">SECONDARY</text><text fill="#000000" font-family="sans-serif" font-size="11" lengthAdjust="spacing" textLength="32" x="13" y="461.7886">NONE</text><text fill="#000000" font-family="sans-serif" font-size="11" lengthAdjust="spacing" textLength="96" x="13" y="474.5933">NOT_APPLICABLE</text><!--MD5=[81960e4ff72ba7d13c3855fd18b78ae0]
class S1000DProperty--><rect codeLine="23" fill="#F8F8F8" height="95.9922" id="S1000DProperty" style="stroke:#383838;stroke-width:1.5;" width="175" x="56" y="112"/><text fill="#000000" font-family="sans-serif" font-size="12" font-style="italic" lengthAdjust="spacing" textLength="102" x="92.5" y="128.1387">S1000DProperty</text><line style="stroke:#383838;stroke-width:1.5;" x1="57" x2="230" y1="135.9688" y2="135.9688"/><text fill="#000000" font-family="sans-serif" font-size="11" lengthAdjust="spacing" textLength="53" x="62" y="150.1792">getType()</text><text fill="#000000" font-family="sans-serif" font-size="11" lengthAdjust="spacing" textLength="145" x="62" y="162.9839">getS1000DPropertyType()</text><text fill="#000000" font-family="sans-serif" font-size="11" lengthAdjust="spacing" textLength="119" x="62" y="175.7886">isS1000DCompliant()</text><text fill="#000000" font-family="sans-serif" font-size="11" lengthAdjust="spacing" textLength="163" x="62" y="188.5933">getS1000DProductIdentifier()</text><text fill="#000000" font-family="sans-serif" font-size="11" lengthAdjust="spacing" textLength="36" x="62" y="201.3979">getId()</text><!--MD5=[fee04d2824ac842844b4de624080e967]
class S1000DPropertyType--><rect codeLine="30" fill="#F8F8F8" height="83.1875" id="S1000DPropertyType" style="stroke:#383838;stroke-width:1.5;" width="137" x="208" y="398"/><text fill="#000000" font-family="sans-serif" font-size="12" lengthAdjust="spacing" textLength="131" x="211" y="414.1387">S1000DPropertyType</text><line style="stroke:#383838;stroke-width:1.5;" x1="209" x2="344" y1="421.9688" y2="421.9688"/><text fill="#000000" font-family="sans-serif" font-size="11" lengthAdjust="spacing" textLength="121" x="214" y="436.1792">PRODUCT_ATTRIBUTE</text><text fill="#000000" font-family="sans-serif" font-size="11" lengthAdjust="spacing" textLength="123" x="214" y="448.9839">PRODUCT_CONDITION</text><text fill="#000000" font-family="sans-serif" font-size="11" lengthAdjust="spacing" textLength="125" x="214" y="461.7886">EXTERNAL_CONDITION</text><text fill="#000000" font-family="sans-serif" font-size="11" lengthAdjust="spacing" textLength="63" x="214" y="474.5933">UNDEFINED</text><!--MD5=[5169ed4b983cb95252efa0e8fdf7c298]
class S1000DType--><rect codeLine="36" fill="#F8F8F8" height="70.3828" id="S1000DType" style="stroke:#383838;stroke-width:1.5;" width="175" x="197" y="268"/><text fill="#000000" font-family="sans-serif" font-size="12" font-style="italic" lengthAdjust="spacing" textLength="79" x="245" y="284.1387">S1000DType</text><line style="stroke:#383838;stroke-width:1.5;" x1="198" x2="371" y1="291.9688" y2="291.9688"/><text fill="#000000" font-family="sans-serif" font-size="11" lengthAdjust="spacing" textLength="145" x="203" y="306.1792">getS1000DPropertyType()</text><text fill="#000000" font-family="sans-serif" font-size="11" lengthAdjust="spacing" textLength="163" x="203" y="318.9839">getS1000DProductIdentifier()</text><text fill="#000000" font-family="sans-serif" font-size="11" lengthAdjust="spacing" textLength="36" x="203" y="331.7886">getId()</text><!--MD5=[93d8f5eb0f3bc7207cd9b772ea63132b]
reverse link Property to S1000DProperty--><path d="M143.5,62.12 C143.5,77.12 143.5,95.36 143.5,111.95 " fill="none" id="Property-backto-S1000DProperty" style="stroke:#383838;stroke-width:1.0;"/><polygon fill="none" points="136.5,61.9,143.5,41.9,150.5,61.9,136.5,61.9" style="stroke:#383838;stroke-width:1.0;"/><!--MD5=[d850280daa2a88eeada9b57efb2ebc49]
reverse link S1000DIdentified to S1000DProperty--><path d="M266.67,64.23 C247.77,78.77 225.35,96.02 204.84,111.8 " fill="none" id="S1000DIdentified-backto-S1000DProperty" style="stroke:#383838;stroke-width:1.0;"/><polygon fill="none" points="262.43,58.66,282.55,52.01,270.97,69.75,262.43,58.66" style="stroke:#383838;stroke-width:1.0;"/><!--MD5=[49f4f6a0f522ab2a53dbf0bb25fc60cb]
reverse link Type to S1000DType--><path d="M284.5,192.31 C284.5,214.72 284.5,244.86 284.5,267.88 " fill="none" id="Type-backto-S1000DType" style="stroke:#383838;stroke-width:1.0;"/><polygon fill="none" points="277.5,192.06,284.5,172.06,291.5,192.06,277.5,192.06" style="stroke:#383838;stroke-width:1.0;"/><!--MD5=[4d090bf23cb366b14d68e4032ae4226b]
reverse link S1000DIdentified to S1000DType--><path d="M318.34,71.81 C323.91,108.01 329.03,161.9 320.5,208 C316.72,228.45 308.67,250.2 301.15,267.62 " fill="none" id="S1000DIdentified-backto-S1000DType" style="stroke:#383838;stroke-width:1.0;"/><polygon fill="none" points="311.43,72.91,314.98,52.02,325.23,70.56,311.43,72.91" style="stroke:#383838;stroke-width:1.0;"/><!--MD5=[48210eb7327650ee097b794a8d04c4bb]
link S1000DProperty to S1000DType--><path codeLine="42" d="M190.84,208.34 C208.99,226.49 229.44,246.94 246.59,264.09 " fill="none" id="S1000DProperty-to-S1000DType" style="stroke:#383838;stroke-width:1.0;stroke-dasharray:7.0,7.0;"/><polygon fill="#383838" points="250.43,267.93,246.8945,258.7376,246.8945,264.3945,241.2376,264.3945,250.43,267.93" style="stroke:#383838;stroke-width:1.0;"/><!--MD5=[e4a6e98685fc7b39620bfc126794c333]
link S1000DProperty to S1000DProductIdentifier--><path codeLine="43" d="M131.45,208.01 C126.84,226.63 121.69,248.27 117.5,268 C108.57,310.08 99.95,358.33 94.07,392.74 " fill="none" id="S1000DProperty-to-S1000DProductIdentifier" style="stroke:#383838;stroke-width:1.0;stroke-dasharray:7.0,7.0;"/><polygon fill="#383838" points="93.22,397.72,98.6567,389.5077,94.0489,392.7892,90.7675,388.1814,93.22,397.72" style="stroke:#383838;stroke-width:1.0;"/><!--MD5=[c6bbb1501aaaa4ed212ea8696e46f722]
link S1000DProperty to S1000DPropertyType--><path codeLine="44" d="M145.89,208.13 C149.42,245.25 158.12,297.34 179.5,338 C190.41,358.75 206.92,378.16 223.24,394.29 " fill="none" id="S1000DProperty-to-S1000DPropertyType" style="stroke:#383838;stroke-width:1.0;stroke-dasharray:7.0,7.0;"/><polygon fill="#383838" points="226.93,397.89,223.2831,388.7412,223.3518,394.3977,217.6954,394.4664,226.93,397.89" style="stroke:#383838;stroke-width:1.0;"/><!--MD5=[bddb5059e327156f0e426adc29d940cb]
link S1000DType to S1000DProductIdentifier--><path codeLine="45" d="M234.28,338.11 C208.83,355.4 177.65,376.58 150.5,395.02 " fill="none" id="S1000DType-to-S1000DProductIdentifier" style="stroke:#383838;stroke-width:1.0;stroke-dasharray:7.0,7.0;"/><polygon fill="#383838" points="146.18,397.96,155.8724,396.2115,150.316,395.1504,151.377,389.594,146.18,397.96" style="stroke:#383838;stroke-width:1.0;"/><!--MD5=[8b47f22551a43120ee7611c1902b36a3]
link S1000DType to S1000DPropertyType--><path codeLine="46" d="M282.46,338.29 C281.49,354.65 280.31,374.47 279.26,392.16 " fill="none" id="S1000DType-to-S1000DPropertyType" style="stroke:#383838;stroke-width:1.0;stroke-dasharray:7.0,7.0;"/><polygon fill="#383838" points="278.93,397.57,283.4618,388.8257,279.2295,392.579,275.4762,388.3466,278.93,397.57" style="stroke:#383838;stroke-width:1.0;"/><!--MD5=[bdbda134d34995abab62a76b04ff5bf3]
@startuml

hide empty members
hide circle
skinparam monochrome true
skinparam shadowing false

!$extbg = "FFFFFF"
!$extfg = "CCCCCC"


interface Property #$extbg;line:$extfg;text:$extfg
interface Type #$extbg;line:$extfg;text:$extfg

interface S1000DIdentified {
   getId()
}
enum S1000DProductIdentifier {
   PRIMARY
   SECONDARY
   NONE
   NOT_APPLICABLE
}
interface S1000DProperty extends Property, S1000DIdentified {
   getType()
   getS1000DPropertyType()
   isS1000DCompliant()
   getS1000DProductIdentifier()
   getId()
}
enum S1000DPropertyType {
   PRODUCT_ATTRIBUTE
   PRODUCT_CONDITION
   EXTERNAL_CONDITION
   UNDEFINED
}
interface S1000DType extends Type, S1000DIdentified {
   getS1000DPropertyType()
   getS1000DProductIdentifier()
   getId()
}

S1000DProperty ..> S1000DType
S1000DProperty ..> S1000DProductIdentifier
S1000DProperty ..> S1000DPropertyType
S1000DType ..> S1000DProductIdentifier
S1000DType ..> S1000DPropertyType


@enduml

@startuml

hide empty members
hide circle
skinparam monochrome true
skinparam shadowing false



interface Property #FFFFFF;line:CCCCCC;text:CCCCCC
interface Type #FFFFFF;line:CCCCCC;text:CCCCCC

interface S1000DIdentified {
   getId()
}
enum S1000DProductIdentifier {
   PRIMARY
   SECONDARY
   NONE
   NOT_APPLICABLE
}
interface S1000DProperty extends Property, S1000DIdentified {
   getType()
   getS1000DPropertyType()
   isS1000DCompliant()
   getS1000DProductIdentifier()
   getId()
}
enum S1000DPropertyType {
   PRODUCT_ATTRIBUTE
   PRODUCT_CONDITION
   EXTERNAL_CONDITION
   UNDEFINED
}
interface S1000DType extends Type, S1000DIdentified {
   getS1000DPropertyType()
   getS1000DProductIdentifier()
   getId()
}

S1000DProperty ..> S1000DType
S1000DProperty ..> S1000DProductIdentifier
S1000DProperty ..> S1000DPropertyType
S1000DType ..> S1000DProductIdentifier
S1000DType ..> S1000DPropertyType


@enduml

PlantUML version 1.2021.12(Tue Oct 05 18:01:58 CEST 2021)
(GPL source distribution)
Java Runtime: OpenJDK Runtime Environment
JVM: OpenJDK 64-Bit Server VM
Default Encoding: UTF-8
Language: fr
Country: FR
--></g></svg>