<?xml version="1.0" encoding="UTF-8" standalone="no"?><svg xmlns="http://www.w3.org/2000/svg" xmlns:xlink="http://www.w3.org/1999/xlink" contentScriptType="application/ecmascript" contentStyleType="text/css" height="714px" preserveAspectRatio="none" style="width:872px;height:714px;background:#FFFFFF;" version="1.1" viewBox="0 0 872 714" width="872px" zoomAndPan="magnify"><defs/><g><!--MD5=[f7217341b3bb6bbf768c7f0e049f8d09]
cluster Legend--><polygon fill="#EEEEEE" points="751,353,816,353,823,375.2969,855,375.2969,855,522,751,522,751,353" style="stroke:#000000;stroke-width:1.5;"/><line style="stroke:#000000;stroke-width:1.5;" x1="751" x2="823" y1="375.2969" y2="375.2969"/><text fill="#000000" font-family="sans-serif" font-size="14" font-weight="bold" lengthAdjust="spacing" textLength="59" x="755" y="367.9951">Legend</text><!--MD5=[3dfa3f2a47c42e7badf1c5a380940d73]
class Registry--><rect codeLine="21" fill="#FFFF55" height="23.9688" id="Registry" style="stroke:#000000;stroke-width:1.5;" width="56" x="775" y="396"/><text fill="#000000" font-family="sans-serif" font-size="12" lengthAdjust="spacing" textLength="50" x="778" y="412.1387">Registry</text><!--MD5=[9445d644bbe92584b3fa45e77778917b]
class Policy--><rect codeLine="22" fill="#FFCC55" height="23.9688" id="Policy" style="stroke:#000000;stroke-width:1.5;" width="41" x="782.5" y="455"/><text fill="#000000" font-family="sans-serif" font-size="12" lengthAdjust="spacing" textLength="35" x="785.5" y="471.1387">Policy</text><!--MD5=[e869235eb923f7c6906b118fc744eb5d]
class Global--><rect codeLine="26" fill="#FFFF55" height="70.3828" id="Global" style="stroke:#000000;stroke-width:1.5;" width="96" x="7" y="322"/><text fill="#000000" font-family="sans-serif" font-size="12" lengthAdjust="spacing" textLength="39" x="35.5" y="338.1387">Global</text><line style="stroke:#000000;stroke-width:1.5;" x1="8" x2="102" y1="345.9688" y2="345.9688"/><text fill="#000000" font-family="sans-serif" font-size="11" lengthAdjust="spacing" textLength="83" x="13" y="360.1792">context="true"</text><text fill="#000000" font-family="sans-serif" font-size="11" lengthAdjust="spacing" textLength="41" x="13" y="372.9839">prefix=</text><text fill="#000000" font-family="sans-serif" font-size="11" lengthAdjust="spacing" textLength="84" x="13" y="385.7886">path="/Global"</text><!--MD5=[810ff3c6bd450077134a8fc6e5a430e2]
class P1--><rect codeLine="31" fill="#FFFF55" height="70.3828" id="P1" style="stroke:#000000;stroke-width:1.5;" width="120" x="163" y="322"/><text fill="#000000" font-family="sans-serif" font-size="12" lengthAdjust="spacing" textLength="65" x="190.5" y="338.1387">Program 1</text><line style="stroke:#000000;stroke-width:1.5;" x1="164" x2="282" y1="345.9688" y2="345.9688"/><text fill="#000000" font-family="sans-serif" font-size="11" lengthAdjust="spacing" textLength="72" x="169" y="360.1792">context="..."</text><text fill="#000000" font-family="sans-serif" font-size="11" lengthAdjust="spacing" textLength="65" x="169" y="372.9839">prefix="P1"</text><text fill="#000000" font-family="sans-serif" font-size="11" lengthAdjust="spacing" textLength="108" x="169" y="385.7886">path="/Program 1"</text><!--MD5=[8d8be6a88e5a30d9b650c2518534eb73]
class P2--><rect codeLine="36" fill="#FFFF55" height="70.3828" id="P2" style="stroke:#000000;stroke-width:1.5;" width="120" x="163" y="165"/><text fill="#000000" font-family="sans-serif" font-size="12" lengthAdjust="spacing" textLength="65" x="190.5" y="181.1387">Program 2</text><line style="stroke:#000000;stroke-width:1.5;" x1="164" x2="282" y1="188.9688" y2="188.9688"/><text fill="#000000" font-family="sans-serif" font-size="11" lengthAdjust="spacing" textLength="72" x="169" y="203.1792">context="..."</text><text fill="#000000" font-family="sans-serif" font-size="11" lengthAdjust="spacing" textLength="65" x="169" y="215.9839">prefix="P2"</text><text fill="#000000" font-family="sans-serif" font-size="11" lengthAdjust="spacing" textLength="108" x="169" y="228.7886">path="/Program 2"</text><!--MD5=[433391fe876cc9dc6e0cac0ff3532f52]
class P3--><rect codeLine="41" fill="#FFFF55" height="70.3828" id="P3" style="stroke:#000000;stroke-width:1.5;" width="120" x="163" y="479"/><text fill="#000000" font-family="sans-serif" font-size="12" lengthAdjust="spacing" textLength="65" x="190.5" y="495.1387">Program 3</text><line style="stroke:#000000;stroke-width:1.5;" x1="164" x2="282" y1="502.9688" y2="502.9688"/><text fill="#000000" font-family="sans-serif" font-size="11" lengthAdjust="spacing" textLength="72" x="169" y="517.1792">context="..."</text><text fill="#000000" font-family="sans-serif" font-size="11" lengthAdjust="spacing" textLength="65" x="169" y="529.9839">prefix="P3"</text><text fill="#000000" font-family="sans-serif" font-size="11" lengthAdjust="spacing" textLength="108" x="169" y="542.7886">path="/Program 3"</text><!--MD5=[c4ad16297ce8289e7db10494c550b400]
class All--><rect codeLine="46" fill="#FFFF55" height="70.3828" id="All" style="stroke:#000000;stroke-width:1.5;" width="133" x="348.5" y="427"/><text fill="#000000" font-family="sans-serif" font-size="12" lengthAdjust="spacing" textLength="78" x="376" y="443.1387">All Programs</text><line style="stroke:#000000;stroke-width:1.5;" x1="349.5" x2="480.5" y1="450.9688" y2="450.9688"/><text fill="#000000" font-family="sans-serif" font-size="11" lengthAdjust="spacing" textLength="83" x="354.5" y="465.1792">context="true"</text><text fill="#000000" font-family="sans-serif" font-size="11" lengthAdjust="spacing" textLength="41" x="354.5" y="477.9839">prefix=</text><text fill="#000000" font-family="sans-serif" font-size="11" lengthAdjust="spacing" textLength="121" x="354.5" y="490.7886">path="/All Programs"</text><!--MD5=[d6afcfb572d93c387f429a22a71ae526]
class P1Foo--><rect codeLine="52" fill="#FFCC55" height="70.3828" id="P1Foo" style="stroke:#000000;stroke-width:1.5;" width="144" x="343" y="217"/><text fill="#000000" font-family="sans-serif" font-size="12" lengthAdjust="spacing" textLength="23" x="403.5" y="233.1387">Foo</text><line style="stroke:#000000;stroke-width:1.5;" x1="344" x2="486" y1="240.9688" y2="240.9688"/><text fill="#000000" font-family="sans-serif" font-size="11" lengthAdjust="spacing" textLength="72" x="349" y="255.1792">context="..."</text><text fill="#000000" font-family="sans-serif" font-size="11" lengthAdjust="spacing" textLength="65" x="349" y="267.9839">prefix="P1"</text><text fill="#000000" font-family="sans-serif" font-size="11" lengthAdjust="spacing" textLength="132" x="349" y="280.7886">path="/Program 1/Foo"</text><!--MD5=[b28a876ac8838b896ea991e096e779c7]
class P1Bar--><rect codeLine="57" fill="#FFCC55" height="70.3828" id="P1Bar" style="stroke:#000000;stroke-width:1.5;" width="144" x="343" y="322"/><text fill="#000000" font-family="sans-serif" font-size="12" lengthAdjust="spacing" textLength="21" x="404.5" y="338.1387">Bar</text><line style="stroke:#000000;stroke-width:1.5;" x1="344" x2="486" y1="345.9688" y2="345.9688"/><text fill="#000000" font-family="sans-serif" font-size="11" lengthAdjust="spacing" textLength="72" x="349" y="360.1792">context="..."</text><text fill="#000000" font-family="sans-serif" font-size="11" lengthAdjust="spacing" textLength="65" x="349" y="372.9839">prefix="P1"</text><text fill="#000000" font-family="sans-serif" font-size="11" lengthAdjust="spacing" textLength="132" x="349" y="385.7886">path="/Program 1/Bar"</text><!--MD5=[4b8b571f06798d947d5faf4402f86863]
class P1FooFoo--><rect codeLine="62" fill="#FFCC55" height="70.3828" id="P1FooFoo" style="stroke:#000000;stroke-width:1.5;" width="168" x="547" y="164"/><text fill="#000000" font-family="sans-serif" font-size="12" lengthAdjust="spacing" textLength="23" x="619.5" y="180.1387">Foo</text><line style="stroke:#000000;stroke-width:1.5;" x1="548" x2="714" y1="187.9688" y2="187.9688"/><text fill="#000000" font-family="sans-serif" font-size="11" lengthAdjust="spacing" textLength="72" x="553" y="202.1792">context="..."</text><text fill="#000000" font-family="sans-serif" font-size="11" lengthAdjust="spacing" textLength="65" x="553" y="214.9839">prefix="P1"</text><text fill="#000000" font-family="sans-serif" font-size="11" lengthAdjust="spacing" textLength="156" x="553" y="227.7886">path="/Program 1/Foo/Foo"</text><!--MD5=[4e2ceee2aa0c089821340382012b1d04]
class P1FooBar--><rect codeLine="67" fill="#FFCC55" height="70.3828" id="P1FooBar" style="stroke:#000000;stroke-width:1.5;" width="168" x="547" y="269"/><text fill="#000000" font-family="sans-serif" font-size="12" lengthAdjust="spacing" textLength="21" x="620.5" y="285.1387">Bar</text><line style="stroke:#000000;stroke-width:1.5;" x1="548" x2="714" y1="292.9688" y2="292.9688"/><text fill="#000000" font-family="sans-serif" font-size="11" lengthAdjust="spacing" textLength="72" x="553" y="307.1792">context="..."</text><text fill="#000000" font-family="sans-serif" font-size="11" lengthAdjust="spacing" textLength="65" x="553" y="319.9839">prefix="P1"</text><text fill="#000000" font-family="sans-serif" font-size="11" lengthAdjust="spacing" textLength="156" x="553" y="332.7886">path="/Program 1/Foo/Bar"</text><!--MD5=[7a915b15c078809667fa727f4189138d]
class P2Foo--><rect codeLine="72" fill="#FFCC55" height="70.3828" id="P2Foo" style="stroke:#000000;stroke-width:1.5;" width="144" x="343" y="112"/><text fill="#000000" font-family="sans-serif" font-size="12" lengthAdjust="spacing" textLength="23" x="403.5" y="128.1387">Foo</text><line style="stroke:#000000;stroke-width:1.5;" x1="344" x2="486" y1="135.9688" y2="135.9688"/><text fill="#000000" font-family="sans-serif" font-size="11" lengthAdjust="spacing" textLength="72" x="349" y="150.1792">context="..."</text><text fill="#000000" font-family="sans-serif" font-size="11" lengthAdjust="spacing" textLength="65" x="349" y="162.9839">prefix="P2"</text><text fill="#000000" font-family="sans-serif" font-size="11" lengthAdjust="spacing" textLength="132" x="349" y="175.7886">path="/Program 2/Foo"</text><!--MD5=[59bbacbf62caa9f18a91c9c6a4a6b9a6]
class P2Bar--><rect codeLine="77" fill="#FFCC55" height="70.3828" id="P2Bar" style="stroke:#000000;stroke-width:1.5;" width="144" x="343" y="7"/><text fill="#000000" font-family="sans-serif" font-size="12" lengthAdjust="spacing" textLength="21" x="404.5" y="23.1387">Bar</text><line style="stroke:#000000;stroke-width:1.5;" x1="344" x2="486" y1="30.9688" y2="30.9688"/><text fill="#000000" font-family="sans-serif" font-size="11" lengthAdjust="spacing" textLength="72" x="349" y="45.1792">context="..."</text><text fill="#000000" font-family="sans-serif" font-size="11" lengthAdjust="spacing" textLength="65" x="349" y="57.9839">prefix="P2"</text><text fill="#000000" font-family="sans-serif" font-size="11" lengthAdjust="spacing" textLength="132" x="349" y="70.7886">path="/Program 2/Bar"</text><!--MD5=[5275ba970bfcbfeb027e5b8b7ee7ecec]
class P3Foo--><rect codeLine="82" fill="#FFCC55" height="70.3828" id="P3Foo" style="stroke:#000000;stroke-width:1.5;" width="144" x="343" y="637"/><text fill="#000000" font-family="sans-serif" font-size="12" lengthAdjust="spacing" textLength="23" x="403.5" y="653.1387">Foo</text><line style="stroke:#000000;stroke-width:1.5;" x1="344" x2="486" y1="660.9688" y2="660.9688"/><text fill="#000000" font-family="sans-serif" font-size="11" lengthAdjust="spacing" textLength="72" x="349" y="675.1792">context="..."</text><text fill="#000000" font-family="sans-serif" font-size="11" lengthAdjust="spacing" textLength="65" x="349" y="687.9839">prefix="P3"</text><text fill="#000000" font-family="sans-serif" font-size="11" lengthAdjust="spacing" textLength="132" x="349" y="700.7886">path="/Program 3/Foo"</text><!--MD5=[3abebf56d82e1ce22f90cf986cbe8a0a]
class P3Bar--><rect codeLine="87" fill="#FFCC55" height="70.3828" id="P3Bar" style="stroke:#000000;stroke-width:1.5;" width="144" x="343" y="532"/><text fill="#000000" font-family="sans-serif" font-size="12" lengthAdjust="spacing" textLength="21" x="404.5" y="548.1387">Bar</text><line style="stroke:#000000;stroke-width:1.5;" x1="344" x2="486" y1="555.9688" y2="555.9688"/><text fill="#000000" font-family="sans-serif" font-size="11" lengthAdjust="spacing" textLength="72" x="349" y="570.1792">context="..."</text><text fill="#000000" font-family="sans-serif" font-size="11" lengthAdjust="spacing" textLength="65" x="349" y="582.9839">prefix="P3"</text><text fill="#000000" font-family="sans-serif" font-size="11" lengthAdjust="spacing" textLength="132" x="349" y="595.7886">path="/Program 3/Bar"</text><!--MD5=[2bdf516ba24b378310a0ef7e15b1e90e]
class AllFoo--><rect codeLine="92" fill="#FFCC55" height="70.3828" id="AllFoo" style="stroke:#000000;stroke-width:1.5;" width="157" x="552.5" y="374"/><text fill="#000000" font-family="sans-serif" font-size="12" lengthAdjust="spacing" textLength="23" x="619.5" y="390.1387">Foo</text><line style="stroke:#000000;stroke-width:1.5;" x1="553.5" x2="708.5" y1="397.9688" y2="397.9688"/><text fill="#000000" font-family="sans-serif" font-size="11" lengthAdjust="spacing" textLength="72" x="558.5" y="412.1792">context="..."</text><text fill="#000000" font-family="sans-serif" font-size="11" lengthAdjust="spacing" textLength="41" x="558.5" y="424.9839">prefix=</text><text fill="#000000" font-family="sans-serif" font-size="11" lengthAdjust="spacing" textLength="145" x="558.5" y="437.7886">path="/All Programs/Foo"</text><!--MD5=[1ff29b96e4fa0ff93a26b74d70618cb0]
class AllBar--><rect codeLine="97" fill="#FFCC55" height="70.3828" id="AllBar" style="stroke:#000000;stroke-width:1.5;" width="157" x="552.5" y="479"/><text fill="#000000" font-family="sans-serif" font-size="12" lengthAdjust="spacing" textLength="21" x="620.5" y="495.1387">Bar</text><line style="stroke:#000000;stroke-width:1.5;" x1="553.5" x2="708.5" y1="502.9688" y2="502.9688"/><text fill="#000000" font-family="sans-serif" font-size="11" lengthAdjust="spacing" textLength="72" x="558.5" y="517.1792">context="..."</text><text fill="#000000" font-family="sans-serif" font-size="11" lengthAdjust="spacing" textLength="41" x="558.5" y="529.9839">prefix=</text><text fill="#000000" font-family="sans-serif" font-size="11" lengthAdjust="spacing" textLength="145" x="558.5" y="542.7886">path="/All Programs/Bar"</text><!--MD5=[89e6736bcd0c5e9e67175b6b0b78af98]
link Global to P1--><path codeLine="103" d="M103.12,357 C117.65,357 134,357 149.81,357 " fill="none" id="Global-to-P1" style="stroke:#000000;stroke-width:1.0;"/><polygon fill="#FFFFFF" points="162.91,357,156.91,353,150.91,357,156.91,361,162.91,357" style="stroke:#000000;stroke-width:1.0;"/><!--MD5=[921b005834643215a73bf8f72bb3022d]
link Global to P2--><path codeLine="104" d="M93.25,321.77 C117.5,298.84 149.31,268.75 175.25,244.22 " fill="none" id="Global-to-P2" style="stroke:#000000;stroke-width:1.0;"/><polygon fill="#FFFFFF" points="184.87,235.12,177.7621,236.3358,176.1506,243.3645,183.2585,242.1487,184.87,235.12" style="stroke:#000000;stroke-width:1.0;"/><!--MD5=[720e5d497778aae5270e6902e28d49bf]
link Global to P3--><path codeLine="105" d="M93.25,392.23 C117.5,415.16 149.31,445.25 175.25,469.78 " fill="none" id="Global-to-P3" style="stroke:#000000;stroke-width:1.0;"/><polygon fill="#FFFFFF" points="184.87,478.88,183.2585,471.8513,176.1506,470.6355,177.7621,477.6642,184.87,478.88" style="stroke:#000000;stroke-width:1.0;"/><!--MD5=[2ba897bcb79413f94120357a92af5e44]
link P1 to All--><path codeLine="106" d="M283.08,389.65 C300.76,399.42 320.39,410.27 338.95,420.53 " fill="none" id="P1-to-All" style="stroke:#000000;stroke-width:1.0;"/><polygon fill="#FFFFFF" points="350.34,426.82,347.0205,420.4183,339.8346,421.0203,343.1541,427.4219,350.34,426.82" style="stroke:#000000;stroke-width:1.0;"/><!--MD5=[f78ef4b566228fe1549553c75f5560c6]
link P2 to All--><path codeLine="107" d="M243.94,235.14 C255.38,255.29 270,281.06 283,304 C309.69,351.1 307.03,369.55 343,410 C345.47,412.78 348.12,415.51 350.89,418.16 " fill="none" id="P2-to-All" style="stroke:#000000;stroke-width:1.0;"/><polygon fill="#FFFFFF" points="360.66,426.87,358.8413,419.892,351.7006,418.887,353.5193,425.865,360.66,426.87" style="stroke:#000000;stroke-width:1.0;"/><!--MD5=[6db16dc7694c64e417b4b3f86303dafc]
link P3 to All--><path codeLine="108" d="M283.08,497.83 C299.73,493.27 318.11,488.24 335.71,483.43 " fill="none" id="P3-to-All" style="stroke:#000000;stroke-width:1.0;"/><polygon fill="#FFFFFF" points="348.34,479.97,341.4976,477.6936,336.7647,483.1341,343.607,485.4105,348.34,479.97" style="stroke:#000000;stroke-width:1.0;"/><!--MD5=[287f2fc356c58a86378c9e71d2de49c1]
link P1 to P1Foo--><path codeLine="109" d="M283.08,324.35 C300.76,314.58 320.39,303.73 338.95,293.47 " fill="none" id="P1-to-P1Foo" style="stroke:#000000;stroke-width:1.0;"/><polygon fill="#FFFFFF" points="350.34,287.18,343.1541,286.5781,339.8346,292.9797,347.0205,293.5817,350.34,287.18" style="stroke:#000000;stroke-width:1.0;"/><!--MD5=[3ee96b7fd934c04ab86b04698cedf114]
link P1 to P1Bar--><path codeLine="110" d="M283.08,357 C297.88,357 314.06,357 329.83,357 " fill="none" id="P1-to-P1Bar" style="stroke:#000000;stroke-width:1.0;"/><polygon fill="#FFFFFF" points="342.94,357,336.94,353,330.94,357,336.94,361,342.94,357" style="stroke:#000000;stroke-width:1.0;"/><!--MD5=[13a81b00982b93fc2c29c6d925e3d26d]
link P1Foo to P1FooFoo--><path codeLine="111" d="M487.26,234.35 C502.17,230.66 518.13,226.71 533.78,222.83 " fill="none" id="P1Foo-to-P1FooFoo" style="stroke:#000000;stroke-width:1.0;"/><polygon fill="#FFFFFF" points="546.82,219.6,540.0335,217.162,535.1729,222.4887,541.9593,224.9267,546.82,219.6" style="stroke:#000000;stroke-width:1.0;"/><!--MD5=[f64402039bcdc19d6afe38a26fbd2379]
link P1Foo to P1FooBar--><path codeLine="112" d="M487.26,269.32 C502.17,272.94 518.13,276.82 533.78,280.62 " fill="none" id="P1Foo-to-P1FooBar" style="stroke:#000000;stroke-width:1.0;"/><polygon fill="#FFFFFF" points="546.82,283.79,541.9352,278.4854,535.1599,280.9541,540.0447,286.2588,546.82,283.79" style="stroke:#000000;stroke-width:1.0;"/><!--MD5=[f9ec5b8a19c69acea49c4163ce3ef38e]
link P2 to P2Foo--><path codeLine="113" d="M283.08,183.52 C298.03,179.35 314.38,174.79 330.3,170.35 " fill="none" id="P2-to-P2Foo" style="stroke:#000000;stroke-width:1.0;"/><polygon fill="#FFFFFF" points="342.94,166.82,336.0874,164.5746,331.3791,170.0365,338.2317,172.2819,342.94,166.82" style="stroke:#000000;stroke-width:1.0;"/><!--MD5=[6819adbd345351c581f468e724a61755]
link P2 to P2Bar--><path codeLine="114" d="M261.51,164.92 C284.55,143.8 314.92,116.7 343,94 C346.55,91.13 350.25,88.22 354,85.31 " fill="none" id="P2-to-P2Bar" style="stroke:#000000;stroke-width:1.0;"/><polygon fill="#FFFFFF" points="364.65,77.2,357.453,77.6506,355.1009,84.4674,362.2979,84.0167,364.65,77.2" style="stroke:#000000;stroke-width:1.0;"/><!--MD5=[1094ffee07ebf5881bb6897b0b2c5095]
link P3 to P3Foo--><path codeLine="115" d="M261.51,549.08 C284.55,570.2 314.92,597.3 343,620 C346.55,622.87 350.25,625.78 354,628.69 " fill="none" id="P3-to-P3Foo" style="stroke:#000000;stroke-width:1.0;"/><polygon fill="#FFFFFF" points="364.65,636.8,362.2979,629.9833,355.1009,629.5326,357.453,636.3494,364.65,636.8" style="stroke:#000000;stroke-width:1.0;"/><!--MD5=[d3f625c5165a17ab71ac95abc69f0c72]
link P3 to P3Bar--><path codeLine="116" d="M283.08,530.48 C298.03,534.65 314.38,539.21 330.3,543.65 " fill="none" id="P3-to-P3Bar" style="stroke:#000000;stroke-width:1.0;"/><polygon fill="#FFFFFF" points="342.94,547.18,338.2317,541.7181,331.3791,543.9635,336.0874,549.4254,342.94,547.18" style="stroke:#000000;stroke-width:1.0;"/><!--MD5=[8ec56b9d6f30323771fb917327874b27]
link All to AllFoo--><path codeLine="117" d="M481.66,445.74 C500,441.2 520.26,436.18 539.76,431.35 " fill="none" id="All-to-AllFoo" style="stroke:#000000;stroke-width:1.0;"/><polygon fill="#FFFFFF" points="552.43,428.21,545.6435,425.772,540.7829,431.0987,547.5693,433.5367,552.43,428.21" style="stroke:#000000;stroke-width:1.0;"/><!--MD5=[6aaaec6236397bfc98c4704decc1927b]
link All to AllBar--><path codeLine="118" d="M481.66,477.96 C500,482.41 520.26,487.33 539.76,492.07 " fill="none" id="All-to-AllBar" style="stroke:#000000;stroke-width:1.0;"/><polygon fill="#FFFFFF" points="552.43,495.15,547.5452,489.8454,540.7699,492.3141,545.6547,497.6188,552.43,495.15" style="stroke:#000000;stroke-width:1.0;"/><!--MD5=[f3c6f19285223eb2cbffd0942b91610d]
link AllBar to Legend--><!--MD5=[54c56ef3571fa2dd56758d778e44119b]
@startuml

hide empty members
hide circle
hide stereotype
skinparam shadowing false
left to right direction


skinparam class {
   ArrowColor black
   BorderColor black
   <<Registry>>BackgroundColor #FFFF55
   <<Policy>>BackgroundColor #FFCC55
}

skinparam folder {
   backgroundColor EEEEEE
}

folder Legend {
   class "Registry" <<Registry>>
   class "Policy" <<Policy>>
}


class "Global" as Global<<Registry>> {
   context="true"
   prefix=
   path="/Global" 
} 
class "Program 1" as P1<<Registry>> {
   context="..."
   prefix="P1"
   path="/Program 1" 
}
class "Program 2" as P2<<Registry>> {
   context="..."
   prefix="P2"
   path="/Program 2" 
}
class "Program 3" as P3<<Registry>> {
   context="..."
   prefix="P3"
   path="/Program 3" 
}
class "All Programs" as All<<Registry>> {
   context="true"
   prefix=
   path="/All Programs" 
}
 
class "Foo" as P1Foo<<Policy>> {
   context="..."
   prefix="P1"
   path="/Program 1/Foo" 
}
class "Bar" as P1Bar<<Policy>> {
   context="..."
   prefix="P1"
   path="/Program 1/Bar" 
}
class "Foo" as P1FooFoo<<Policy>> {
   context="..."
   prefix="P1"
   path="/Program 1/Foo/Foo" 
}
class "Bar" as P1FooBar<<Policy>> {
   context="..."
   prefix="P1"
   path="/Program 1/Foo/Bar" 
}
class "Foo" as P2Foo<<Policy>> {
   context="..."
   prefix="P2"
   path="/Program 2/Foo" 
}
class "Bar" as P2Bar<<Policy>> {
   context="..."
   prefix="P2"
   path="/Program 2/Bar" 
}
class "Foo" as P3Foo<<Policy>> {
   context="..."
   prefix="P3"
   path="/Program 3/Foo" 
}
class "Bar" as P3Bar<<Policy>> {
   context="..."
   prefix="P3"
   path="/Program 3/Bar" 
}
class "Foo" as AllFoo<<Policy>> {
   context="..."
   prefix=
   path="/All Programs/Foo" 
}
class "Bar" as AllBar<<Policy>> {
   context="..."
   prefix=
   path="/All Programs/Bar" 
}

Global - -o P1
Global - -o P2
Global - -o P3
P1 - -o All
P2 - -o All
P3 - -o All
P1 - -o P1Foo
P1 - -o P1Bar
P1Foo - -o P1FooFoo
P1Foo - -o P1FooBar
P2 - -o P2Foo
P2 - -o P2Bar
P3 - -o P3Foo
P3 - -o P3Bar
All - -o AllFoo
All - -o AllBar

AllBar -[hidden]-> Legend

@enduml

PlantUML version 1.2021.12(Tue Oct 05 18:01:58 CEST 2021)
(GPL source distribution)
Java Runtime: OpenJDK Runtime Environment
JVM: OpenJDK 64-Bit Server VM
Default Encoding: UTF-8
Language: fr
Country: FR
--></g></svg>