@startuml

abstract class Type
abstract class StringType extends Type
class EnumeratedType extends StringType

class EnumeratedValue {
   ordinal
   literal
}

class PatternType extends StringType {
   pattern
}

class IntegerType extends Type
class RealType extends Type
class BooleanType extends Type

EnumeratedType *-- EnumeratedValue

hide empty members
hide circle
skinparam monochrome true
skinparam shadowing false

@enduml