<?xml version="1.0" encoding="UTF-8" standalone="no"?><svg xmlns="http://www.w3.org/2000/svg" xmlns:xlink="http://www.w3.org/1999/xlink" contentScriptType="application/ecmascript" contentStyleType="text/css" height="71px" preserveAspectRatio="none" style="width:112px;height:71px;background:#FFFFFF;" version="1.1" viewBox="0 0 112 71" width="112px" zoomAndPan="magnify"><defs/><g><!--MD5=[a83d828be13d333e1fddb3d4d9d97191]
class Handler--><rect codeLine="11" fill="#F8F8F8" height="57.5781" id="Handler" style="stroke:#383838;stroke-width:1.5;" width="98" x="7" y="7"/><text fill="#000000" font-family="sans-serif" font-size="12" font-style="italic" lengthAdjust="spacing" textLength="49" x="31.5" y="23.1387">Handler</text><line style="stroke:#383838;stroke-width:1.5;" x1="8" x2="104" y1="30.9688" y2="30.9688"/><text fill="#000000" font-family="sans-serif" font-size="11" lengthAdjust="spacing" textLength="86" x="13" y="45.1792">processBegin()</text><text fill="#000000" font-family="sans-serif" font-size="11" lengthAdjust="spacing" textLength="75" x="13" y="57.9839">processEnd()</text><!--MD5=[0a4f0a9d79c8fb56dc1c4b38f2ff5899]
@startuml

hide empty members
hide circle
hide stereotype
skinparam shadowing false
skinparam monochrome true

!$extbg = "FFFFFF"
!$extfg = "CCCCCC"

interface Handler {
   processBegin()
   processEnd()
}

@enduml

@startuml

hide empty members
hide circle
hide stereotype
skinparam shadowing false
skinparam monochrome true


interface Handler {
   processBegin()
   processEnd()
}

@enduml

PlantUML version 1.2021.12(Tue Oct 05 18:01:58 CEST 2021)
(GPL source distribution)
Java Runtime: OpenJDK Runtime Environment
JVM: OpenJDK 64-Bit Server VM
Default Encoding: UTF-8
Language: fr
Country: FR
--></g></svg>