@startuml

hide empty members
hide circle
hide stereotype
skinparam shadowing false
skinparam monochrome true

!$extbg = "FFFFFF"
!$extfg = "CCCCCC"
!$impfg = "BBBBBB"

class CutEvent<T> {
}

'enum Type {
'   EXCLUDE_OJECT_APPLICABILITY
'   INCLUDE_OBJECT_APPLICABILITY
'   CUT_OBJECT_APPLICABILITY
'   DEGENERATED_OBJECT_APPLICABILITY
'}
'CutEvent +-- Type

interface Handler #$extbg;line:$extfg;text:$extfg 
interface ApplicabilityExtractor<T> #$extbg;line:$extfg;text:$extfg
class FactorizationFeatures #$extbg;line:$extfg;text:$extfg

interface CutHandler<T> extends Handler  {
    processExcludeObjectApplicability(...)
    processIncludeObjectApplicability(...)
    processCutObjectApplicability(...)
    processDegenerateObjectApplicability(...)
}

interface Cutter {
   <T> cut(..., handler)
   <T> cut(...) : List<CutEvent<T>>>
}

class CutterImpl #$impfg implements Cutter

Cutter ..> CutHandler
Cutter ..> CutEvent
Cutter .up.> FactorizationFeatures
Cutter .up.> ApplicabilityExtractor
@enduml
