@startuml

hide empty members
hide circle
hide stereotype
skinparam shadowing false
skinparam monochrome true

!$extbg = "FFFFFF"
!$extfg = "CCCCCC"


interface Domain<V, R> {
   min()
   max()
   pred(value)
   succ(value)
   ...()
}
abstract class AbstractDomain<V, R> implements Domain

interface Value #$extbg;line:$extfg;text:$extfg
abstract class AbstractRange<V, R> #$extbg;line:$extfg;text:$extfg

class IntegerDomain extends AbstractDomain
class IntegerRange #$extbg;line:$extfg;text:$extfg extends AbstractRange
class IntegerValue #$extbg;line:$extfg;text:$extfg
class RealDomain extends AbstractDomain
class RealRange #$extbg;line:$extfg;text:$extfg extends AbstractRange
class RealValue #$extbg;line:$extfg;text:$extfg

Domain ..> Value
Domain ..> AbstractRange
IntegerDomain ..> IntegerValue
IntegerDomain ..> IntegerRange
RealDomain ..> RealValue
RealDomain ..> RealRange


@enduml
