@startuml

hide empty members
hide circle
hide stereotype
skinparam shadowing false
skinparam monochrome true

!$extbg = "FFFFFF"
!$extfg = "CCCCCC"
!$impfg = "BBBBBB"

interface PieceFormatter #$extbg;line:$extfg;text:$extfg

interface SpaceFormatter #$extbg;line:$extfg;text:$extfg extends PieceFormatter
class SpaceFormatterImpl #$impfg implements SpaceFormatter  {
   spacing
   text
}

interface SymbolFormatter #$extbg;line:$extfg;text:$extfg extends PieceFormatter
class SymbolFormatterImpl #$impfg implements SymbolFormatter {
   literals
   spaces
   defaults
}

interface NameFormatter #$extbg;line:$extfg;text:$extfg extends PieceFormatter
class IdentityNameFormatter #$impfg implements NameFormatter  {
   escaping mode
}
class MapNameFormatter #$impfg implements NameFormatter  {
   map
}

interface ValueFormatter #$extbg;line:$extfg;text:$extfg extends PieceFormatter
abstract class AbstractValueFormatter #$impfg implements ValueFormatter 
class BooleanValueFormatter #$impfg extends AbstractValueFormatter {
   literals
}
class IntegerValueFormatter #$impfg extends AbstractValueFormatter  {
   format
   locale
}
class RealValueFormatter #$impfg extends AbstractValueFormatter {
   format
   locale
}
class IdentityStringValueFormatter #$impfg extends AbstractValueFormatter {
   escaping mode
}
class MapStringValueFormatter #$impfg extends AbstractValueFormatter {
   map
}
class ConverterStringValueFormatter #$impfg extends AbstractValueFormatter {
   converter
}

@enduml