@startuml

hide empty members
hide circle
hide stereotype
skinparam shadowing false
skinparam monochrome true

!$extbg = "FFFFFF"
!$extfg = "CCCCCC"
!$impfg = "BBBBBB"

'class Registry #$extbg;line:$extfg;text:$extfg
interface SpaceFormatter #$extbg;line:$extfg;text:$extfg
interface SymbolFormatter #$extbg;line:$extfg;text:$extfg
interface SNameFormatter #$extbg;line:$extfg;text:$extfg
interface InformalTextFormatter #$extbg;line:$extfg;text:$extfg

class FormattersCatalog #$impfg {
   prefix formatter
   local name formatter
   informal text formatter
   default space formatter
   default symbol formatter
   default name formatter
   default boolean formatter
   default integer formatter
   default real formatter
   default string formatter
}

class Bucket #$impfg {
   key
   space formatter
   symbol formatter
   value formatter
}

interface ValueFormatter #$extbg;line:$extfg;text:$extfg

FormattersCatalog o--> SpaceFormatter
FormattersCatalog o--> SymbolFormatter
FormattersCatalog o--> "prefix\nlocal name" SNameFormatter
FormattersCatalog o--> InformalTextFormatter
Bucket o--> "?" SpaceFormatter
Bucket o--> "?" SymbolFormatter
Bucket o-right-> "?" ValueFormatter
FormattersCatalog *--> "types\n*" Bucket
FormattersCatalog *--> "names\n*" Bucket
FormattersCatalog o--> "boolean\ninteger\nreal\nstring" ValueFormatter

@enduml