<?xml version="1.0" encoding="UTF-8" standalone="no"?>
<!-- Created with Inkscape (http://www.inkscape.org/) -->

<svg
   width="82mm"
   height="68mm"
   viewBox="0 0 82 68"
   version="1.1"
   id="svg5"
   inkscape:version="1.1.1 (eb90963e84, 2021-10-02)"
   sodipodi:docname="projections-principles-3.svg"
   xmlns:inkscape="http://www.inkscape.org/namespaces/inkscape"
   xmlns:sodipodi="http://sodipodi.sourceforge.net/DTD/sodipodi-0.dtd"
   xmlns="http://www.w3.org/2000/svg"
   xmlns:svg="http://www.w3.org/2000/svg">
  <sodipodi:namedview
     id="namedview7"
     pagecolor="#ffffff"
     bordercolor="#666666"
     borderopacity="1.0"
     inkscape:pageshadow="2"
     inkscape:pageopacity="0.0"
     inkscape:pagecheckerboard="0"
     inkscape:document-units="mm"
     showgrid="false"
     inkscape:zoom="1.496633"
     inkscape:cx="268.26884"
     inkscape:cy="246.55343"
     inkscape:window-width="1807"
     inkscape:window-height="999"
     inkscape:window-x="702"
     inkscape:window-y="255"
     inkscape:window-maximized="0"
     inkscape:current-layer="g21852" />
  <defs
     id="defs2">
    <marker
       style="overflow:visible"
       id="Arrow2Mend"
       refX="0"
       refY="0"
       orient="auto"
       inkscape:stockid="Arrow2Mend"
       inkscape:isstock="true">
      <path
         transform="scale(-0.6)"
         d="M 8.7185878,4.0337352 -2.2072895,0.01601326 8.7185884,-4.0017078 c -1.7454984,2.3720609 -1.7354408,5.6174519 -6e-7,8.035443 z"
         style="fill:context-stroke;fill-rule:evenodd;stroke:context-stroke;stroke-width:0.625;stroke-linejoin:round"
         id="path46648" />
    </marker>
    <marker
       style="overflow:visible"
       id="Arrow2Send"
       refX="0"
       refY="0"
       orient="auto"
       inkscape:stockid="Arrow2Send"
       inkscape:isstock="true">
      <path
         transform="matrix(-0.3,0,0,-0.3,0.69,0)"
         d="M 8.7185878,4.0337352 -2.2072895,0.01601326 8.7185884,-4.0017078 c -1.7454984,2.3720609 -1.7354408,5.6174519 -6e-7,8.035443 z"
         style="fill:context-stroke;fill-rule:evenodd;stroke:context-stroke;stroke-width:0.625;stroke-linejoin:round"
         id="path46654" />
    </marker>
    <marker
       style="overflow:visible"
       id="Arrow2Mend-5"
       refX="0"
       refY="0"
       orient="auto"
       inkscape:stockid="Arrow2Mend"
       inkscape:isstock="true">
      <path
         transform="scale(-0.6)"
         d="M 8.7185878,4.0337352 -2.2072895,0.01601326 8.7185884,-4.0017078 c -1.7454984,2.3720609 -1.7354408,5.6174519 -6e-7,8.035443 z"
         style="fill:context-stroke;fill-rule:evenodd;stroke:context-stroke;stroke-width:0.625;stroke-linejoin:round"
         id="path46648-3" />
    </marker>
    <marker
       style="overflow:visible"
       id="Arrow2Mend-2"
       refX="0"
       refY="0"
       orient="auto"
       inkscape:stockid="Arrow2Mend"
       inkscape:isstock="true">
      <path
         transform="scale(-0.6)"
         d="M 8.7185878,4.0337352 -2.2072895,0.01601326 8.7185884,-4.0017078 c -1.7454984,2.3720609 -1.7354408,5.6174519 -6e-7,8.035443 z"
         style="fill:context-stroke;fill-rule:evenodd;stroke:context-stroke;stroke-width:0.625;stroke-linejoin:round"
         id="path46648-2" />
    </marker>
  </defs>
  <g
     inkscape:label="Calque 1"
     inkscape:groupmode="layer"
     id="layer1">
    <g
       id="g14806"
       transform="translate(0,-6.5977094)">
      <g
         id="g109115-3-0"
         transform="matrix(0.4658768,0,0,0.4658768,-2.1401697,-124.25407)">
        <path
           id="rect47964-1-7-6"
           style="color:#000000;font-variation-settings:normal;overflow:visible;vector-effect:none;fill:#8a8a8a;fill-opacity:1;fill-rule:evenodd;stroke:#b3b3b3;stroke-width:0.674132;stroke-linecap:round;stroke-linejoin:round;stroke-miterlimit:4;stroke-dasharray:none;stroke-dashoffset:0;stroke-opacity:1;-inkscape-stroke:none;stop-color:#000000"
           d="m 40.703344,352.31299 h 29.544968 c 2.035505,0 3.674194,-1.63867 3.674194,-3.67419 V 337.24105 H 40.703344 Z" />
        <path
           id="path99459-6-5"
           style="color:#000000;font-variation-settings:normal;overflow:visible;vector-effect:none;fill:#b9b9b9;fill-opacity:1;fill-rule:evenodd;stroke:#b3b3b3;stroke-width:0.674132;stroke-linecap:round;stroke-linejoin:round;stroke-miterlimit:4;stroke-dasharray:none;stroke-dashoffset:0;stroke-opacity:1;-inkscape-stroke:none;stop-color:#000000"
           d="M 40.703344,352.31299 V 337.24105 H 12.930881 v 11.39775 c 0,2.03552 1.638687,3.67419 3.674192,3.67419 z" />
        <path
           id="path99408-1-0"
           style="color:#000000;font-variation-settings:normal;overflow:visible;vector-effect:none;fill:#e6e6e6;fill-opacity:1;fill-rule:evenodd;stroke:#b3b3b3;stroke-width:0.674132;stroke-linecap:round;stroke-linejoin:round;stroke-miterlimit:4;stroke-dasharray:none;stroke-dashoffset:0;stroke-opacity:1;-inkscape-stroke:none;stop-color:#000000"
           d="M 40.703344,337.24105 H 73.922506 V 324.3147 c 0,-2.03549 -1.638689,-3.67419 -3.674194,-3.67419 H 40.703344 Z" />
        <path
           id="path99456-5-8"
           style="color:#000000;font-variation-settings:normal;overflow:visible;vector-effect:none;fill:#f0f0f0;fill-opacity:1;fill-rule:evenodd;stroke:#b3b3b3;stroke-width:0.674132;stroke-linecap:round;stroke-linejoin:round;stroke-miterlimit:4;stroke-dasharray:none;stroke-dashoffset:0;stroke-opacity:1;-inkscape-stroke:none;stop-color:#000000"
           d="M 40.703344,337.24105 V 320.64051 H 16.605073 c -2.035505,0 -3.674192,1.6387 -3.674192,3.67419 v 12.92635 z" />
      </g>
      <text
         xml:space="preserve"
         style="font-size:5.64444px;line-height:125%;font-family:Arial;-inkscape-font-specification:'Arial, Normal';letter-spacing:0px;word-spacing:0px;fill:#000000;stroke:none;stroke-width:0.123263px;stroke-linecap:butt;stroke-linejoin:miter;stroke-opacity:1"
         x="41.707951"
         y="35.326138"
         id="text111568-0-7"><tspan
           sodipodi:role="line"
           id="tspan111566-3-0"
           style="font-size:5.64444px;fill:#000000;stroke:none;stroke-width:0.123263px"
           x="41.707951"
           y="35.326138">ALWAYS</tspan></text>
      <text
         xml:space="preserve"
         style="font-size:7.88883px;line-height:125%;font-family:Arial;-inkscape-font-specification:'Arial, Normal';letter-spacing:0px;word-spacing:0px;fill:#000000;stroke:none;stroke-width:0.123263px;stroke-linecap:butt;stroke-linejoin:miter;stroke-opacity:1"
         x="7.5987706"
         y="31.760277"
         id="text111568-4"><tspan
           sodipodi:role="line"
           id="tspan111566-2"
           style="font-size:7.88883px;fill:#000000;stroke:none;stroke-width:0.123263px"
           x="7.5987706"
           y="31.760277">+</tspan></text>
      <text
         xml:space="preserve"
         style="font-size:7.88883px;line-height:125%;font-family:Arial;-inkscape-font-specification:'Arial, Normal';letter-spacing:0px;word-spacing:0px;fill:#000000;stroke:none;stroke-width:0.123263px;stroke-linecap:butt;stroke-linejoin:miter;stroke-opacity:1"
         x="22.107317"
         y="31.767982"
         id="text111568-4-7"><tspan
           sodipodi:role="line"
           id="tspan111566-2-4"
           style="font-size:7.88883px;fill:#000000;stroke:none;stroke-width:0.123263px"
           x="22.107317"
           y="31.767982">0</tspan></text>
    </g>
    <g
       id="g14819"
       transform="translate(0,-11.607911)">
      <g
         id="g109115-3-0-1"
         transform="matrix(0.4658768,0,0,0.4658768,-2.1401697,-102.97755)">
        <path
           id="rect47964-1-7-6-2"
           style="color:#000000;font-variation-settings:normal;overflow:visible;vector-effect:none;fill:#8a8a8a;fill-opacity:1;fill-rule:evenodd;stroke:#b3b3b3;stroke-width:0.674132;stroke-linecap:round;stroke-linejoin:round;stroke-miterlimit:4;stroke-dasharray:none;stroke-dashoffset:0;stroke-opacity:1;-inkscape-stroke:none;stop-color:#000000"
           d="m 40.703344,352.31299 h 29.544968 c 2.035505,0 3.674194,-1.63867 3.674194,-3.67419 V 337.24105 H 40.703344 Z" />
        <path
           id="path99459-6-5-2"
           style="color:#000000;font-variation-settings:normal;overflow:visible;vector-effect:none;fill:#b9b9b9;fill-opacity:1;fill-rule:evenodd;stroke:#b3b3b3;stroke-width:0.674132;stroke-linecap:round;stroke-linejoin:round;stroke-miterlimit:4;stroke-dasharray:none;stroke-dashoffset:0;stroke-opacity:1;-inkscape-stroke:none;stop-color:#000000"
           d="M 40.703344,352.31299 V 337.24105 H 12.930881 v 11.39775 c 0,2.03552 1.638687,3.67419 3.674192,3.67419 z" />
        <path
           id="path99408-1-0-6"
           style="color:#000000;font-variation-settings:normal;overflow:visible;vector-effect:none;fill:#e6e6e6;fill-opacity:1;fill-rule:evenodd;stroke:#b3b3b3;stroke-width:0.674132;stroke-linecap:round;stroke-linejoin:round;stroke-miterlimit:4;stroke-dasharray:none;stroke-dashoffset:0;stroke-opacity:1;-inkscape-stroke:none;stop-color:#000000"
           d="M 40.703344,337.24105 H 73.922506 V 324.3147 c 0,-2.03549 -1.638689,-3.67419 -3.674194,-3.67419 H 40.703344 Z" />
        <path
           id="path99456-5-8-9"
           style="color:#000000;font-variation-settings:normal;overflow:visible;vector-effect:none;fill:#f0f0f0;fill-opacity:1;fill-rule:evenodd;stroke:#b3b3b3;stroke-width:0.674132;stroke-linecap:round;stroke-linejoin:round;stroke-miterlimit:4;stroke-dasharray:none;stroke-dashoffset:0;stroke-opacity:1;-inkscape-stroke:none;stop-color:#000000"
           d="M 40.703344,337.24105 V 320.64051 H 16.605073 c -2.035505,0 -3.674192,1.6387 -3.674192,3.67419 v 12.92635 z" />
      </g>
      <text
         xml:space="preserve"
         style="font-size:5.64444px;line-height:125%;font-family:Arial;-inkscape-font-specification:'Arial, Normal';letter-spacing:0px;word-spacing:0px;fill:#000000;stroke:none;stroke-width:0.123263px;stroke-linecap:butt;stroke-linejoin:miter;stroke-opacity:1"
         x="41.095478"
         y="56.602665"
         id="text111568-0-7-0"><tspan
           sodipodi:role="line"
           id="tspan111566-3-0-3"
           style="font-size:5.64444px;fill:#000000;stroke:none;stroke-width:0.123263px"
           x="41.095478"
           y="56.602665">NEVER</tspan></text>
      <text
         xml:space="preserve"
         style="font-size:7.88883px;line-height:125%;font-family:Arial;-inkscape-font-specification:'Arial, Normal';letter-spacing:0px;word-spacing:0px;fill:#000000;stroke:none;stroke-width:0.123263px;stroke-linecap:butt;stroke-linejoin:miter;stroke-opacity:1"
         x="21.972502"
         y="52.885105"
         id="text111568-4-2"><tspan
           sodipodi:role="line"
           id="tspan111566-2-8"
           style="font-size:7.88883px;fill:#000000;stroke:none;stroke-width:0.123263px"
           x="21.972502"
           y="52.885105">+</tspan></text>
      <text
         xml:space="preserve"
         style="font-size:7.88883px;line-height:125%;font-family:Arial;-inkscape-font-specification:'Arial, Normal';letter-spacing:0px;word-spacing:0px;fill:#000000;stroke:none;stroke-width:0.123263px;stroke-linecap:butt;stroke-linejoin:miter;stroke-opacity:1"
         x="7.7335911"
         y="52.892811"
         id="text111568-4-7-0"><tspan
           sodipodi:role="line"
           id="tspan111566-2-4-3"
           style="font-size:7.88883px;fill:#000000;stroke:none;stroke-width:0.123263px"
           x="7.7335911"
           y="52.892811">0</tspan></text>
    </g>
    <g
       id="g21852"
       transform="translate(-1.0325781,-14.141251)">
      <g
         id="g109115-3-0-1-6"
         transform="matrix(0.4658768,0,0,0.4658768,-1.733258,-84.17789)">
        <path
           id="rect47964-1-7-6-2-7"
           style="color:#000000;font-variation-settings:normal;overflow:visible;vector-effect:none;fill:#8a8a8a;fill-opacity:1;fill-rule:evenodd;stroke:#b3b3b3;stroke-width:0.674132;stroke-linecap:round;stroke-linejoin:round;stroke-miterlimit:4;stroke-dasharray:none;stroke-dashoffset:0;stroke-opacity:1;-inkscape-stroke:none;stop-color:#000000"
           d="m 40.703344,352.31299 h 29.544968 c 2.035505,0 3.674194,-1.63867 3.674194,-3.67419 V 337.24105 H 40.703344 Z" />
        <path
           id="path99459-6-5-2-3"
           style="color:#000000;font-variation-settings:normal;overflow:visible;vector-effect:none;fill:#b9b9b9;fill-opacity:1;fill-rule:evenodd;stroke:#b3b3b3;stroke-width:0.674132;stroke-linecap:round;stroke-linejoin:round;stroke-miterlimit:4;stroke-dasharray:none;stroke-dashoffset:0;stroke-opacity:1;-inkscape-stroke:none;stop-color:#000000"
           d="M 40.703344,352.31299 V 337.24105 H 12.930881 v 11.39775 c 0,2.03552 1.638687,3.67419 3.674192,3.67419 z" />
        <path
           id="path99408-1-0-6-6"
           style="color:#000000;font-variation-settings:normal;overflow:visible;vector-effect:none;fill:#e6e6e6;fill-opacity:1;fill-rule:evenodd;stroke:#b3b3b3;stroke-width:0.674132;stroke-linecap:round;stroke-linejoin:round;stroke-miterlimit:4;stroke-dasharray:none;stroke-dashoffset:0;stroke-opacity:1;-inkscape-stroke:none;stop-color:#000000"
           d="M 40.703344,337.24105 H 73.922506 V 324.3147 c 0,-2.03549 -1.638689,-3.67419 -3.674194,-3.67419 H 40.703344 Z" />
        <path
           id="path99456-5-8-9-5"
           style="color:#000000;font-variation-settings:normal;overflow:visible;vector-effect:none;fill:#f0f0f0;fill-opacity:1;fill-rule:evenodd;stroke:#b3b3b3;stroke-width:0.674132;stroke-linecap:round;stroke-linejoin:round;stroke-miterlimit:4;stroke-dasharray:none;stroke-dashoffset:0;stroke-opacity:1;-inkscape-stroke:none;stop-color:#000000"
           d="M 40.703344,337.24105 V 320.64051 H 16.605073 c -2.035505,0 -3.674192,1.6387 -3.674192,3.67419 v 12.92635 z" />
      </g>
      <text
         xml:space="preserve"
         style="font-size:5.64444px;line-height:125%;font-family:Arial;-inkscape-font-specification:'Arial, Normal';letter-spacing:0px;word-spacing:0px;fill:#000000;stroke:none;stroke-width:0.123263px;stroke-linecap:butt;stroke-linejoin:miter;stroke-opacity:1"
         x="41.502392"
         y="75.402321"
         id="text111568-0-7-0-6"><tspan
           sodipodi:role="line"
           id="tspan111566-3-0-3-3"
           style="font-size:5.64444px;fill:#000000;stroke:none;stroke-width:0.123263px"
           x="41.502392"
           y="75.402321">DEGENERATE</tspan></text>
      <text
         xml:space="preserve"
         style="font-size:7.88883px;line-height:125%;font-family:Arial;-inkscape-font-specification:'Arial, Normal';letter-spacing:0px;word-spacing:0px;fill:#000000;stroke:none;stroke-width:0.123263px;stroke-linecap:butt;stroke-linejoin:miter;stroke-opacity:1"
         x="22.379414"
         y="71.684761"
         id="text111568-4-2-9"><tspan
           sodipodi:role="line"
           id="tspan111566-2-8-4"
           style="font-size:7.88883px;fill:#000000;stroke:none;stroke-width:0.123263px"
           x="22.379414"
           y="71.684761">0</tspan></text>
      <text
         xml:space="preserve"
         style="font-size:7.88883px;line-height:125%;font-family:Arial;-inkscape-font-specification:'Arial, Normal';letter-spacing:0px;word-spacing:0px;fill:#000000;stroke:none;stroke-width:0.123263px;stroke-linecap:butt;stroke-linejoin:miter;stroke-opacity:1"
         x="8.1405029"
         y="71.692467"
         id="text111568-4-7-0-8"><tspan
           sodipodi:role="line"
           id="tspan111566-2-4-3-1"
           style="font-size:7.88883px;fill:#000000;stroke:none;stroke-width:0.123263px"
           x="8.1405029"
           y="71.692467">0</tspan></text>
    </g>
    <g
       id="g14793"
       transform="translate(0,-1.5875)">
      <g
         id="g109115-3"
         transform="matrix(0.4658768,0,0,0.4658768,-2.1401697,-145.5306)">
        <path
           id="rect47964-1-7"
           style="color:#000000;font-variation-settings:normal;overflow:visible;vector-effect:none;fill:#8a8a8a;fill-opacity:1;fill-rule:evenodd;stroke:#b3b3b3;stroke-width:0.674132;stroke-linecap:round;stroke-linejoin:round;stroke-miterlimit:4;stroke-dasharray:none;stroke-dashoffset:0;stroke-opacity:1;-inkscape-stroke:none;stop-color:#000000"
           d="m 40.703344,352.31299 h 29.544968 c 2.035505,0 3.674194,-1.63867 3.674194,-3.67419 V 337.24105 H 40.703344 Z" />
        <path
           id="path99459-6"
           style="color:#000000;font-variation-settings:normal;overflow:visible;vector-effect:none;fill:#b9b9b9;fill-opacity:1;fill-rule:evenodd;stroke:#b3b3b3;stroke-width:0.674132;stroke-linecap:round;stroke-linejoin:round;stroke-miterlimit:4;stroke-dasharray:none;stroke-dashoffset:0;stroke-opacity:1;-inkscape-stroke:none;stop-color:#000000"
           d="M 40.703344,352.31299 V 337.24105 H 12.930881 v 11.39775 c 0,2.03552 1.638687,3.67419 3.674192,3.67419 z" />
        <path
           id="path99408-1"
           style="color:#000000;font-variation-settings:normal;overflow:visible;vector-effect:none;fill:#e6e6e6;fill-opacity:1;fill-rule:evenodd;stroke:#b3b3b3;stroke-width:0.674132;stroke-linecap:round;stroke-linejoin:round;stroke-miterlimit:4;stroke-dasharray:none;stroke-dashoffset:0;stroke-opacity:1;-inkscape-stroke:none;stop-color:#000000"
           d="M 40.703344,337.24105 H 73.922506 V 324.3147 c 0,-2.03549 -1.638689,-3.67419 -3.674194,-3.67419 H 40.703344 Z" />
        <path
           id="path99456-5"
           style="color:#000000;font-variation-settings:normal;overflow:visible;vector-effect:none;fill:#f0f0f0;fill-opacity:1;fill-rule:evenodd;stroke:#b3b3b3;stroke-width:0.674132;stroke-linecap:round;stroke-linejoin:round;stroke-miterlimit:4;stroke-dasharray:none;stroke-dashoffset:0;stroke-opacity:1;-inkscape-stroke:none;stop-color:#000000"
           d="M 40.703344,337.24105 V 320.64051 H 16.605073 c -2.035505,0 -3.674192,1.6387 -3.674192,3.67419 v 12.92635 z" />
      </g>
      <text
         xml:space="preserve"
         style="font-size:7.88883px;line-height:125%;font-family:Arial;-inkscape-font-specification:'Arial, Normal';letter-spacing:0px;word-spacing:0px;fill:#000000;stroke:none;stroke-width:0.123263px;stroke-linecap:butt;stroke-linejoin:miter;stroke-opacity:1"
         x="7.5987706"
         y="10.207062"
         id="text111568"><tspan
           sodipodi:role="line"
           id="tspan111566"
           style="font-size:7.88883px;fill:#000000;stroke:none;stroke-width:0.123263px"
           x="7.5987706"
           y="10.207062">+</tspan></text>
      <text
         xml:space="preserve"
         style="font-size:5.64444px;line-height:125%;font-family:Arial;-inkscape-font-specification:'Arial, Normal';letter-spacing:0px;word-spacing:0px;fill:#000000;stroke:none;stroke-width:0.123263px;stroke-linecap:butt;stroke-linejoin:miter;stroke-opacity:1"
         x="41.342003"
         y="14.05154"
         id="text111568-0"><tspan
           sodipodi:role="line"
           id="tspan111566-3"
           style="font-size:5.64444px;fill:#000000;stroke:none;stroke-width:0.123263px"
           x="41.342003"
           y="14.05154">SOMETIMES</tspan></text>
      <text
         xml:space="preserve"
         style="font-size:7.88883px;line-height:125%;font-family:Arial;-inkscape-font-specification:'Arial, Normal';letter-spacing:0px;word-spacing:0px;fill:#000000;stroke:none;stroke-width:0.123263px;stroke-linecap:butt;stroke-linejoin:miter;stroke-opacity:1"
         x="21.972502"
         y="10.207062"
         id="text111568-1"><tspan
           sodipodi:role="line"
           id="tspan111566-0"
           style="font-size:7.88883px;fill:#000000;stroke:none;stroke-width:0.123263px"
           x="21.972502"
           y="10.207062">+</tspan></text>
    </g>
  </g>
</svg>
